<svg xmlns="http://www.w3.org/2000/svg" width="352.517" height="422.864" viewBox="0 0 352.517 422.864">
    <defs>
        <style>
            .cls-1{fill:#fff}.cls-2{fill:#ececec;font-size:82px;font-family:ArialMT,Arial}
        </style>
    </defs>
    <g id="iconfinder_money_322468" transform="translate(0 96)">
        <path id="Path_45" d="M304.773 1.329v.021a31.914 31.914 0 0 0 3.679-14.384v-20.742C308.453-68.134 249.263-96 176.259-96S44.065-68.123 44.065-33.776a27.376 27.376 0 0 1 .551-5.019C17.3-27.408 0-10.8 0 7.707v20.742c0 19.238 18.6 36.443 47.744 47.84a31.948 31.948 0 0 0-3.679 14.384v20.741c0 7.291 2.8 14.239 7.7 20.741-4.9 6.5-7.7 13.451-7.7 20.741v20.741c0 34.358 59.19 62.224 132.194 62.224s132.194-27.877 132.194-62.224V152.9c0-7.415-2.908-14.478-7.943-21.063-.044.041-.1.1-.143.145 3.7-4.947 6.621-10.091 7.546-15.535 27.309-11.408 44.6-27.991 44.6-46.492V49.211c0-19.248-18.6-36.474-47.744-47.882zM176.259-85.629c71.4 0 121.178 27.327 121.178 51.854 0 24.506-49.782 51.854-121.178 51.854S55.081-9.27 55.081-33.776c0-24.524 49.76-51.853 121.178-51.853zM11.016 7.707c0-12.113 12.184-24.848 33.049-34.7v13.959c0 34.358 59.19 62.224 132.194 62.224a272.377 272.377 0 0 0 31.583-1.867c-20.2 7.311-45.871 12.237-75.648 12.237-71.418.001-121.178-27.347-121.178-51.853zM297.437 152.9c0 24.506-49.782 51.854-121.178 51.854S55.081 177.4 55.081 152.9c0-4.076 1.851-8.2 4.451-12.3a.371.371 0 0 1-.1-.114c22.2 19.7 66.174 33.145 116.826 33.145 50.718 0 94.475-13.544 116.617-33.28l-.044.042c2.71 4.138 4.6 8.359 4.6 12.507zm-45.486-22.629c-20.226 7.353-45.893 12.248-75.692 12.248-71.4 0-121.178-27.358-121.178-51.854a22.037 22.037 0 0 1 3.25-10.6 220.764 220.764 0 0 0 35.516 7.923c16.436 25.554 66.813 44.169 126.477 44.169a270.055 270.055 0 0 0 31.716-1.887c-.022 0-.044.021-.088.021zm-31.627-29.225c-28.256 0-52.933-4.376-72.685-11.076 62.12-3.443 111.175-26.922 116.21-56.489 14.982-6.264 27-14.052 34.712-22.93h-.022c26.681 10.2 42.919 24.8 42.919 38.652 0 24.506-49.771 51.854-121.178 51.854zM199.811-18.665c0-2.188-1.851-3.868-5.552-4.988s-11.941-2.593-24.7-4.335q-17.2-2.271-26.89-4.542a48.1 48.1 0 0 1-15.731-6.285c-4.021-2.717-6.048-5.87-6.048-9.437 0-4.7 3.613-8.95 10.785-12.725 7.172-3.744 18.518-6.036 33.952-6.886v-7.415h20.887v7.415q34.982 1.649 45.276 15.276l-28.73 4.542c-5.617-6.244-14.26-9.355-26.008-9.355-5.894 0-10.631.685-14.178 2.105-3.569 1.379-5.354 3.08-5.354 5.061 0 2.022 1.719 3.568 5.189 4.656 3.437 1.079 10.785 2.385 22.076 4.014 12.393 1.742 22.131 3.381 29.149 4.947 7.094 1.535 12.669 3.692 16.888 6.42q6.3 4.107 6.29 9.583c0 5.631-4.351 10.288-13.021 14.032S202.9-.631 186.526.043v9.6H165.65V.085q-40.964-1.618-50.718-18.367l32.277-3.246q4.462 10.516 29.689 10.516 11.782 0 17.339-2.25c3.7-1.5 5.552-3.3 5.552-5.424z" class="cls-1" data-name="Path 45"/>
        <text id="Taxawo" class="cls-2" transform="translate(37.138 309.864)">
            <tspan x="0" y="0">Taxawo</tspan>
        </text>
    </g>
</svg>
